{
  "matchPart":[
    {
        "id": 1,
        "name": "1st half"
    },
    {
        "id": 2,
        "name": "2nd half"
    },
    {
        "id": 3,
        "name": "1nd half prolongation"
    },
    {
        "id": 4,
        "name": "2nd half prolongation"
    },
    {
        "id": 5,
        "name": "Penalties"
    }
  ]}